{
  "366aa0": {
    "meta": {
      "icon": "usr/icons/Books.png",
      "index": "web.wiki.word",
      "name": "Books",
      "time": "2023-05-24 15:32:00.605"
    }
  },
  "63beed": {
    "meta": {
      "icon": "usr/icons/Photos.png",
      "index": "web.wiki.feel",
      "name": "Photos",
      "time": "2023-05-24 15:32:00.607"
    }
  },
  "680cac": {
    "meta": {
      "icon": "usr/icons/Grapher.png",
      "index": "web.wiki.draw",
      "name": "Grapher",
      "time": "2023-05-24 15:32:00.608"
    }
  },
  "a7a14c": {
    "meta": {
      "_target": [],
      "icon": "/require/src/client/docker.png",
      "index": "web.code.docker.client",
      "name": "docker",
      "time": "2023-08-12 01:19:25.214"
    }
  },
  "dfd878": {
    "meta": {
      "args": "month",
      "icon": "usr/icons/Calendar.png",
      "index": "web.team.plan",
      "name": "Calendar",
      "time": "2023-05-24 15:32:00.609"
    }
  }
}
